[
  {
    "name": "％％源氏名％％",
    "img": "images/free.jpeg",
    "days": "●月●日●時〜●時　出勤"
  },
  {
    "name": "％％源氏名％％",
    "img": "images/free.jpeg",
    "days": "●月●日●時〜●時　出勤"
  },
  {
    "name": "％％源氏名％％",
    "img": "images/free.jpeg",
    "days": "●月●日●時〜●時　出勤"
  },
  {
    "name": "％％源氏名％％",
    "img": "images/free.jpeg",
    "days": "●月●日●時〜●時　出勤"
  },
  {
    "name": "％％源氏名％％",
    "img": "images/free.jpeg",
    "days": "●月●日●時〜●時　出勤"
  },
  {
    "name": "％％源氏名％％",
    "img": "images/free.jpeg",
    "days": "●月●日●時〜●時　出勤"
  },
  {
    "name": "％％源氏名％％",
    "img": "images/free.jpeg",
    "days": "●月●日●時〜●時　出勤"
  },
  {
    "name": "％％源氏名％％",
    "img": "images/free.jpeg",
    "days": "●月●日●時〜●時　出勤"
  }
]
