[
  {
    "link": "news-page.html",
    "title": "ニュース"
  },
  {
    "title": "キャストシフト管理",
    "sub": [
      {
        "link": "shift-direct-page.html",
        "title": ">> シフト直接入力"
      }
    ]
  },
  {
    "title": "キャストマネージャー",
    "link": "wait-cast-page.html",
    "sub": [
      {
        "link": "data-base-page.html",
        "title": ">> 面接データベース"
      },
      {
        "link": "profile-page.html",
        "title": ">> 宣材写真の追加・編集"
      }
    ]
  },
  {
    "title": "キャスト一覧ソートリスト",
    "link": "cast-retrieval-page.html"
  },
  {
    "title": "即姫の設定",
    "link": "sokuhime-contents-page.html"
  },
  {
    "title": "おすすめ・ピックアップ設定",
    "link": "pickup-page.html",
    "sub": [
      {
        "title": ">> トップページピックアップ設定",
        "link": "#"
      },
      {
        "title": ">> ランキング設定",
        "link": "#"
      }
    ]
  },
  {
    "title": "キャンペーン",
    "link": "campaign-page.html"
  },
  {
    "link": "mail-magazine-page.html",
    "title": "メールマガジン"
  },
  {
    "link": "#",
    "title": "会員・キャスト検索"
  },
  {
    "link": "profile-page.html",
    "title": "出勤日からキャストを探す"
  }
]
